<?xml version="1.0" encoding="UTF-8" standalone="no"?>
<!-- Created with Inkscape (http://www.inkscape.org/) -->
<svg
   xmlns:dc="http://purl.org/dc/elements/1.1/"
   xmlns:cc="http://web.resource.org/cc/"
   xmlns:rdf="http://www.w3.org/1999/02/22-rdf-syntax-ns#"
   xmlns:svg="http://www.w3.org/2000/svg"
   xmlns="http://www.w3.org/2000/svg"
   xmlns:sodipodi="http://sodipodi.sourceforge.net/DTD/sodipodi-0.dtd"
   xmlns:inkscape="http://www.inkscape.org/namespaces/inkscape"
   width="744.09448"
   height="301.18109"
   id="svg2"
   sodipodi:version="0.32"
   inkscape:version="0.45"
   version="1.0"
   sodipodi:docbase="C:\Documents and Settings\Ivaylo Kroumov\My Documents\My Pictures"
   sodipodi:docname="bmw_507.svg"
   inkscape:output_extension="org.inkscape.output.svg.inkscape"
   sodipodi:modified="true">
  <defs
     id="defs4" />
  <sodipodi:namedview
     id="base"
     pagecolor="#ffffff"
     bordercolor="#666666"
     borderopacity="1.0"
     gridtolerance="10000"
     guidetolerance="10"
     objecttolerance="10"
     inkscape:pageopacity="0.0"
     inkscape:pageshadow="2"
     inkscape:zoom="0.94310367"
     inkscape:cx="368.91247"
     inkscape:cy="162.26478"
     inkscape:document-units="px"
     inkscape:current-layer="layer1"
     width="210mm"
     height="85mm"
     inkscape:window-width="1152"
     inkscape:window-height="808"
     inkscape:window-x="-4"
     inkscape:window-y="-4"
     showguides="true"
     inkscape:guide-bbox="true"
     units="mm" />
  <metadata
     id="metadata7">
    <rdf:RDF>
      <cc:Work
         rdf:about="">
        <dc:format>image/svg+xml</dc:format>
        <dc:type
           rdf:resource="http://purl.org/dc/dcmitype/StillImage" />
      </cc:Work>
    </rdf:RDF>
  </metadata>
  <g
     inkscape:label="Layer 1"
     inkscape:groupmode="layer"
     id="layer1"
     transform="translate(-194.64745,-251.61565)">
    <g
       id="g10167"
       transform="translate(15.745079,9.7469542)">
      <path
         style="fill:#ffffff;fill-opacity:1;stroke:#000000;stroke-width:0.39999998;stroke-miterlimit:4;stroke-dasharray:none;stroke-opacity:1"
         d="M 666.93027,261.96042 C 669.94166,262.25643 671.04639,264.98393 670.44339,266.34114 C 668.80183,270.03563 666.9125,272.78323 664.69366,274.78482 C 662.7321,276.55432 660.40037,276.28747 658.13171,276.21392 C 636.65451,275.52749 617.14244,273.34355 604.37507,270.57247 C 599.67757,269.55291 598.04,267.92335 596.54951,266.03325 C 593.80641,262.55463 592.18843,259.14474 591.34154,255.66834 C 590.55761,252.45029 593.67824,251.44688 597.06364,251.93077 C 617.89952,254.90889 644.70508,259.77532 666.93027,261.96042 z "
         id="path9196"
         sodipodi:nodetypes="cssssssss" />
      <path
         sodipodi:nodetypes="cssssssss"
         id="path8223"
         d="M 520.10553,258.2963 C 517.49906,258.45799 516.80836,260.80212 517.47388,262.00554 C 519.28559,265.28139 521.21823,267.73908 523.36374,269.55649 C 525.26047,271.16316 527.27886,271.03096 529.25361,271.01371 C 548.22266,270.84813 559.75928,270.2297 570.98397,268.76165 C 575.05637,268.22904 576.26179,266.6536 577.3751,265.05241 C 579.42405,262.10551 580.49493,259.18249 580.88396,256.1767 C 581.24407,253.39431 578.41023,252.41882 575.49536,252.73242 C 557.55542,254.66247 539.34221,257.10265 520.10553,258.2963 z "
         style="fill:#ffffff;fill-opacity:1;stroke:#000000;stroke-width:0.39999998;stroke-miterlimit:4;stroke-dasharray:none;stroke-opacity:1" />
      <g
         style="stroke:#000000;stroke-opacity:1"
         id="g8199">
        <path
           style="fill:none;fill-opacity:1;stroke:#000000;stroke-width:0.40000001;stroke-miterlimit:4;stroke-dasharray:none;stroke-opacity:1"
           d="M 602.67339,315.63181 C 606.95376,301.73048 622.38355,298.18759 632.05249,298.73365 C 652.52906,299.89009 665.9813,318.73151 667.94017,328.01403"
           id="path7226"
           sodipodi:nodetypes="csc" />
        <path
           sodipodi:nodetypes="css"
           id="path8197"
           d="M 605.54012,316.10209 C 611.30981,303.56568 623.15926,301.15723 631.66349,301.63313 C 649.53947,302.63344 661.41005,319.31223 664.02968,327.38994"
           style="fill:none;fill-opacity:1;stroke:#000000;stroke-width:0.40000001;stroke-miterlimit:4;stroke-dasharray:none;stroke-opacity:1" />
      </g>
      <g
         style="stroke:#000000;stroke-opacity:1"
         transform="translate(0.1988117,-3.0484454)"
         id="g7221">
        <path
           style="fill:none;fill-opacity:1;stroke:#000000;stroke-width:0.40000001;stroke-miterlimit:4;stroke-dasharray:none;stroke-opacity:1"
           d="M 593.7626,278.43807 C 593.99773,280.46968 593.79809,282.86932 593.32217,285.23749 C 593.09895,285.99389 593.02063,286.15418 592.16462,286.27074 C 587.37035,286.72543 581.97644,286.1318 576.88518,284.70687 C 576.46013,284.67071 576.43526,284.38221 576.29345,283.95059 C 575.94258,282.1965 575.68308,280.44242 576.01613,278.68833 C 576.0217,278.24824 576.30312,278.0679 576.79329,277.95768 C 582.41017,276.92415 588.78488,276.90763 593.02492,277.57574 C 593.76195,277.75732 593.65646,278.01697 593.7626,278.43807 z "
           id="path6246"
           sodipodi:nodetypes="ccccccccc" />
        <path
           style="fill:none;fill-opacity:1;stroke:#000000;stroke-width:0.40000001;stroke-miterlimit:4;stroke-dasharray:none;stroke-opacity:1"
           d="M 583.50516,279.40446 C 585.05215,279.77934 585.08079,283.17603 583.78631,283.55091 C 581.7557,283.33223 580.47485,283.11354 578.7254,282.70742 C 577.84774,281.92641 578.05687,280.54426 578.81912,279.9507 C 580.97074,279.5919 582.16794,279.49818 583.50516,279.40446 z "
           id="path7217"
           sodipodi:nodetypes="ccccc" />
        <path
           style="fill:#ffffff;fill-opacity:1;stroke:#000000;stroke-width:0.40000001;stroke-miterlimit:4;stroke-dasharray:none;stroke-opacity:1"
           d="M 584.77135,265.42229 C 583.82264,268.18356 582.32213,270.3484 581.59036,272.71205 C 580.81871,275.00943 581.26548,277.30681 581.7229,279.60419 C 581.54282,280.10218 580.38279,280.44372 579.93359,279.73673 C 579.37066,277.45383 579.20056,275.26249 579.40343,272.64578 C 579.78861,269.45266 581.4983,267.95678 581.59036,265.42229"
           id="path7219"
           sodipodi:nodetypes="cccccc" />
      </g>
      <path
         sodipodi:nodetypes="ccc"
         id="path4672"
         d="M 863.53249,447.704 C 873.82437,439.1312 881.02475,440.94008 882.66543,434.82586 C 882.98977,433.95941 883.02518,432.24475 882.87333,431.3783"
         style="opacity:1;fill:none;fill-opacity:1;stroke:#000000;stroke-width:0.40000001;stroke-miterlimit:4;stroke-dasharray:none;stroke-opacity:1" />
      <path
         sodipodi:nodetypes="cccccc"
         id="path4674"
         d="M 863.01975,454.50721 L 889.02833,453.0596 C 890.83053,453.16929 890.03075,450.87999 892.04982,450.95 C 895.60959,450.90659 895.49308,460.20208 893.60466,460.62041 C 891.24931,460.93472 891.66594,459.1482 889.63802,459.2378 L 861.91266,462.767"
         style="opacity:1;fill:none;fill-opacity:1;stroke:#000000;stroke-width:0.40000001;stroke-miterlimit:4;stroke-dasharray:none;stroke-opacity:1" />
      <path
         sodipodi:nodetypes="ccssssscccccsc"
         d="M 890.87791,362.80916 C 901.23533,379.17099 897.75911,398.83574 896.05018,416.99741 C 895.22908,424.78399 875.28201,435.85675 863.74898,444.82093 C 864.36999,440.63366 865.26352,432.98763 865.7937,428.29009 C 868.12777,407.60967 868.8052,392.36411 862.03893,380.06076 C 858.73231,374.04821 853.86058,367.04587 841.45707,366.17116 C 833.32438,365.59763 827.40265,369.27896 822.01163,374.88373 C 810.23521,387.12706 800.48742,415.05787 789.30795,443.1953 C 782.98261,459.11544 768.64758,463.94705 763.17025,464.53477 L 589.80282,471.22703 C 588.61957,471.1775 588.15202,471.16932 588.61517,469.34658 C 588.80319,468.4984 589.23513,467.21528 589.55029,466.21959 C 592.69822,456.27424 596.96398,445.83125 596.24255,430.18958 C 594.41848,390.64143 576.93566,367.12307 545.73492,364.52966"
         style="fill:none;fill-opacity:1;stroke:#000000;stroke-width:0.40000001;stroke-miterlimit:4;stroke-opacity:1"
         id="path4670" />
      <path
         sodipodi:nodetypes="csccccccsccccsssc"
         d="M 782.5,359.6302 C 800.17327,351.08479 821.82528,347.62234 843.03572,348.73734 C 853.90472,349.30871 875.83414,357.36636 875.89286,363.20162 C 876.00652,364.85084 873.70156,365.35187 868.57143,364.09448 C 857.44605,361.81732 852.94325,359.64841 833.03572,360.34448 C 828.22083,360.63435 824.02048,362.661 818.39286,370.16591 C 817.57045,371.57458 818.17663,373.72104 821.25,372.48734 C 824.46129,369.53032 828.72076,364.7719 833.03572,364.09448 C 839.67203,363.19503 855.59381,363.86748 870.30484,367.51797 C 874.26225,368.49999 876.75878,369.2396 881.78572,371.23734 C 883.1715,370.99738 883.86797,370.34383 883.57143,369.09448 C 883.84914,367.91492 883.53895,366.29442 886.37627,367.03456 C 891.98587,371.6709 892.16215,367.53147 890.82225,362.64639 C 883.33617,351.51138 871.43764,346.28545 857.68974,341.98062 C 838.69469,336.03278 821.1576,335.7057 806.49007,337.93911 C 796.08552,339.5234 783.74016,343.44531 773.39937,347.37194 C 771.57733,348.06381 768.83711,348.79991 766.64265,349.06171"
         style="fill:#ffffff;fill-opacity:1;stroke:#000000;stroke-width:0.40000001;stroke-miterlimit:4;stroke-opacity:1"
         id="path5870" />
      <path
         sodipodi:nodetypes="csc"
         id="path5611"
         d="M 838.70147,366.08954 C 859.696,368.05035 864.02354,388.15102 864.94312,394.20289 C 867.19436,409.01844 864.32861,422.79141 864.05923,438.90214"
         style="opacity:1;fill:none;fill-opacity:1;stroke:#000000;stroke-width:0.40000001;stroke-miterlimit:4;stroke-dasharray:none;stroke-opacity:1" />
      <path
         sodipodi:nodetypes="csssssccsscccccs"
         id="path5663"
         d="M 768.125,349.27305 C 777.5303,352.11287 779.62698,355.27978 782.5,359.54091 C 784.42854,362.40123 785.53564,366.83058 785.71429,370.52305 C 786.86441,394.29493 784.00745,416.14357 779.55357,436.23734 C 776.82554,448.54492 774.24043,449.40312 769.55357,449.89805 C 757.8576,451.13313 744.53418,451.28355 731.42857,451.77305 C 705.64744,452.73599 666.42857,453.73734 666.42857,453.73734 C 663.16401,453.82185 661.97515,452.87677 662.67857,451.23734 C 668.21801,440.249 670.23682,428.86883 671.42857,417.39805 C 673.17125,400.62444 674.05042,383.80861 674.10714,367.04091 C 674.13109,359.96038 675.73998,352.05908 671.96429,345.8802 C 670.8526,344.4103 672.20822,342.65094 675.35714,343.55877 L 686.96429,345.34448 C 689.3674,346.06225 690.50008,344.65115 689.73214,340.07662 C 698.7444,341.2699 712.79538,345.76774 720.48713,346.77305 C 740.58857,349.33865 765.75505,348.55747 768.125,349.27305 z "
         style="opacity:1;fill:#ffffff;fill-opacity:1;stroke:#000000;stroke-width:0.40000001;stroke-miterlimit:4;stroke-dasharray:none;stroke-opacity:1" />
      <g
         style="stroke:#000000;stroke-opacity:1"
         id="g6321">
        <path
           sodipodi:nodetypes="cssscc"
           id="path5668"
           d="M 542.51167,403.98988 C 524.87613,403.49005 512.76307,428.39862 510.6305,443.05113 C 507.31953,465.80032 512.12147,485.43842 521.56119,495.33625 C 533.64546,508.00698 544.41611,507.17518 553.21464,497.37069 C 564.63429,484.64542 570.19752,468.20803 569.38296,446.71313 C 568.40799,420.98561 558.14746,405.28853 542.51167,403.98988 z "
           style="fill:none;fill-opacity:1;stroke:#000000;stroke-width:0.39999971;stroke-miterlimit:4;stroke-dasharray:none;stroke-opacity:1" />
        <path
           sodipodi:nodetypes="cscsss"
           id="path5670"
           d="M 542.39883,425.37619 C 532.48366,425.31915 525.7668,437.0829 524.40483,449.49153 C 523.15124,460.91266 525.73574,474.78222 532.696,480.40057 C 539.40388,485.33852 545.55377,481.83695 550.73005,474.99186 C 554.29923,470.27202 559.40652,457.50699 557.26303,442.03392 C 556.28301,434.9595 549.25093,425.41559 542.39883,425.37619 z "
           style="fill:none;fill-opacity:1;stroke:#000000;stroke-width:0.39999983;stroke-miterlimit:4;stroke-dasharray:none;stroke-opacity:1" />
        <path
           style="fill:none;fill-opacity:1;stroke:#000000;stroke-width:0.39999983;stroke-miterlimit:4;stroke-dasharray:none;stroke-opacity:1"
           d="M 546.02305,446.37926 C 543.0702,446.36228 541.06984,449.86733 540.66423,453.56451 C 540.29089,456.96749 541.06059,461.09999 543.13344,462.774 C 545.13114,464.2453 546.96262,463.20198 548.50418,461.16246 C 549.56711,459.75615 551.46042,455.89956 550.44979,451.3425 C 549.98907,449.26503 548.06369,446.391 546.02305,446.37926 z "
           id="path5672"
           sodipodi:nodetypes="cscsss" />
        <path
           id="path5676"
           style="fill:none;fill-opacity:1;stroke:#000000;stroke-width:0.40000007;stroke-miterlimit:4;stroke-opacity:1"
           d="M 524.59261,524.88014 C 500.22137,519.98829 487.35806,473.26254 492.1666,442.24579 C 498.08666,404.05939 516.046,385.31306 529.8326,379.55223"
           sodipodi:nodetypes="css" />
        <path
           style="fill:none;fill-opacity:1;stroke:#000000;stroke-width:0.39999995;stroke-miterlimit:4;stroke-dasharray:none;stroke-opacity:1"
           d="M 525.33966,496.66615 C 532.44643,498.22102 538.99614,493.38507 544.71439,485.61514 C 546.29651,483.46537 548.262,480.15369 550.07604,475.93748 M 552.29683,431.62827 C 548.61453,422.49067 540.90063,412.81021 532.80901,412.7624 C 530.24856,412.74727 527.83734,413.29894 525.59359,414.32059"
           id="path5678"
           sodipodi:nodetypes="ccsccs" />
        <path
           style="fill:none;fill-opacity:1;stroke:#000000;stroke-width:0.39999992;stroke-miterlimit:4;stroke-dasharray:none;stroke-opacity:1"
           d="M 542.43599,405.61731 C 525.81007,405.13363 514.39046,429.23788 512.37998,443.41725 C 509.25853,465.43186 513.7856,484.43582 522.68489,494.01406 C 534.07733,506.27564 544.2314,505.47069 552.52624,495.9828 C 563.29213,483.66843 568.53688,467.76182 567.76892,446.96101 C 566.84979,422.06424 557.17666,406.87404 542.43599,405.61731 z "
           id="path5680"
           sodipodi:nodetypes="cssscc" />
        <path
           sodipodi:nodetypes="ccsccss"
           id="path5682"
           d="M 515.12056,433.20027 C 515.66913,432.94807 516.28049,432.80727 516.92487,432.80727 C 519.2927,432.80727 521.21441,434.70848 521.21441,437.05104 M 521.21441,437.05104 C 521.21441,439.3936 519.2927,441.29481 516.92487,441.29481 C 515.46909,441.29481 514.18193,440.57617 513.40635,439.47812"
           style="fill:none;fill-opacity:1;stroke:#000000;stroke-width:0.3999998;stroke-miterlimit:4;stroke-opacity:1" />
        <path
           sodipodi:nodetypes="csssc"
           style="fill:none;fill-opacity:1;stroke:#000000;stroke-width:0.39999971;stroke-miterlimit:4;stroke-opacity:1"
           d="M 530.7022,421.9755 C 531.63485,423.85884 530.68668,425.63951 528.58574,425.95022 C 526.48478,426.26091 524.78414,425.3852 523.8515,423.50187 C 522.91887,421.61852 523.86707,419.83787 525.96801,419.52717 C 528.06892,419.21648 529.76959,420.09216 530.7022,421.9755"
           id="path5684" />
        <path
           sodipodi:nodetypes="ccscss"
           id="path5686"
           d="M 511.39748,455.53936 C 512.11254,454.62593 513.16123,454.04908 514.32932,454.04908 C 516.48252,454.04908 518.23002,456.0092 518.23002,458.42436 C 518.23002,460.83953 516.48252,462.79964 514.32932,462.79964 C 513.38602,462.79964 512.52061,462.42347 511.84586,461.79763"
           style="fill:none;fill-opacity:1;stroke:#000000;stroke-width:0.39999986;stroke-miterlimit:4;stroke-opacity:1" />
        <path
           sodipodi:nodetypes="csssc"
           id="path5688"
           d="M 522.4231,477.49716 C 522.63505,479.09293 521.73166,481.43107 519.09952,481.05834 C 516.39864,480.67587 515.23712,478.39946 515.23725,477.25798 C 515.23745,475.38521 516.6913,473.88973 518.33158,473.93598 C 520.37709,473.99548 522.21116,475.53139 522.4231,477.49716 z "
           style="fill:none;fill-opacity:1;stroke:#000000;stroke-width:0.39999968;stroke-miterlimit:4;stroke-opacity:1" />
        <path
           id="path5690"
           d="M 533.68231,486.24751 C 534.09717,487.36771 532.74927,488.85118 530.67357,489.55881 C 528.59789,490.26643 526.57658,489.93159 526.16171,488.81138 C 525.74684,487.69116 527.09475,486.20769 529.17041,485.50005 C 531.24611,484.79243 533.26745,485.12728 533.68231,486.24751 z "
           style="fill:none;fill-opacity:1;stroke:#000000;stroke-width:0.39999995;stroke-miterlimit:4;stroke-opacity:1" />
        <path
           sodipodi:nodetypes="csssc"
           id="path5692"
           d="M 542.76714,422.56702 C 541.46716,422.68946 540.15023,421.95598 538.80891,420.53419 C 537.46761,419.11241 537.7557,417.60201 538.51945,417.40766 C 539.22566,417.22797 540.47862,417.19077 541.81992,418.61256 C 543.16123,420.03434 543.57217,422.049 542.76714,422.56702 z "
           style="fill:none;fill-opacity:1;stroke:#000000;stroke-width:0.39999986;stroke-miterlimit:4;stroke-opacity:1" />
        <path
           style="fill:none;fill-opacity:1;stroke:#000000;stroke-width:0.4000001;stroke-miterlimit:4;stroke-opacity:1"
           d="M 462.30094,446.87533 C 459.32392,479.14393 470.02286,519.51309 498.23208,526.86439 C 506.52182,529.02469 527.63419,530.71028 539.21709,529.038 C 549.30273,527.58189 555.43895,524.73671 561.15179,518.22355 C 577.75817,499.29079 584.34645,473.1795 583.97286,442.98153 C 582.75332,405.26639 562.54191,380.20656 544.85972,377.42999 C 537.4878,376.2724 526.27259,376.54682 516.56031,377.72742"
           id="path5674" />
        <path
           sodipodi:nodetypes="cscsss"
           id="path3194"
           d="M 545.96834,448.86129 C 544.10082,448.84912 542.8357,451.361 542.57916,454.01056 C 542.34304,456.44928 542.82985,459.41081 544.14082,460.61049 C 545.40426,461.66488 546.56257,460.91719 547.53753,459.45558 C 548.20978,458.44776 549.40719,455.68396 548.76802,452.41817 C 548.47664,450.92936 547.25894,448.8697 545.96834,448.86129 z "
           style="fill:none;fill-opacity:1;stroke:#000000;stroke-width:0.40000004;stroke-miterlimit:4;stroke-dasharray:none;stroke-opacity:1" />
      </g>
      <g
         style="stroke:#000000;stroke-opacity:1"
         id="g6279">
        <path
           style="fill:none;fill-opacity:1;stroke:#000000;stroke-width:0.39999992;stroke-miterlimit:4;stroke-dasharray:none;stroke-opacity:1"
           d="M 833.56167,402.36517 C 819.96735,401.34994 809.73227,422.80249 807.56531,435.58529 C 804.20095,455.43161 807.20918,472.81436 814.1434,481.80505 C 823.02024,493.3145 831.3632,492.93715 838.50297,484.62485 C 847.76969,473.83629 852.64808,459.60007 852.78354,440.71903 C 852.94566,418.12007 845.58407,404.01568 833.56167,402.36517 z "
           id="path5823"
           sodipodi:nodetypes="cssscc" />
        <path
           style="fill:none;fill-opacity:1;stroke:#000000;stroke-width:0.40000001;stroke-miterlimit:4;stroke-dasharray:none;stroke-opacity:1"
           d="M 832.71425,421.12063 C 825.0632,420.7463 819.46053,430.84527 817.96814,441.68504 C 816.59451,451.66216 818.09628,463.91247 823.26885,469.0683 C 828.27082,473.61904 833.14213,470.74876 837.38083,464.91384 C 840.30352,460.89053 844.69943,449.86064 843.59506,436.21823 C 843.09013,429.9808 838.00168,421.37929 832.71425,421.12063 z "
           id="path5825"
           sodipodi:nodetypes="cscsss" />
        <path
           sodipodi:nodetypes="cscsss"
           id="path5827"
           d="M 834.76493,439.66215 C 832.48636,439.55068 830.81776,442.55973 830.37325,445.78947 C 829.9641,448.76221 830.41128,452.41224 831.95171,453.9484 C 833.44134,455.3043 834.89207,454.44905 836.15444,452.71049 C 837.02486,451.5117 838.62333,448.19078 838.00528,444.16047 C 837.72353,442.32314 836.33959,439.73919 834.76493,439.66215 z "
           style="fill:none;fill-opacity:1;stroke:#000000;stroke-width:0.40000001;stroke-miterlimit:4;stroke-dasharray:none;stroke-opacity:1" />
        <path
           sodipodi:nodetypes="cscs"
           d="M 811.10435,391.27919 C 815.74104,385.70877 819.60465,383.35079 823.83488,381.5856 M 817.2688,508.93099 C 793.03969,494.99439 788.04348,461.32729 792.98534,433.5607"
           style="fill:none;fill-opacity:1;stroke:#000000;stroke-width:0.40000027;stroke-miterlimit:4;stroke-opacity:1"
           id="path5829" />
        <path
           sodipodi:nodetypes="ccsccs"
           id="path5831"
           d="M 817.01255,483.09516 C 822.44267,484.69146 827.67003,480.66379 832.35993,474.03537 C 833.65753,472.20143 835.29234,469.36085 836.84241,465.72191 M 840.13181,426.92841 C 837.61446,418.79287 832.0046,410.04929 825.76074,409.7427 C 823.78498,409.64569 821.90425,410.05073 820.13608,410.87349"
           style="fill:none;fill-opacity:1;stroke:#000000;stroke-width:0.40000013;stroke-miterlimit:4;stroke-dasharray:none;stroke-opacity:1" />
        <path
           sodipodi:nodetypes="cssscc"
           id="path5833"
           d="M 833.4454,403.7902 C 820.62978,402.82216 810.95854,423.59188 808.90264,435.96365 C 805.71067,455.17183 808.52929,471.98935 815.05774,480.68203 C 823.41514,491.80997 831.28123,491.43601 838.02096,483.38493 C 846.76847,472.93541 851.38217,459.15436 851.52892,440.88367 C 851.70461,419.01523 844.77839,405.37467 833.4454,403.7902 z "
           style="fill:none;fill-opacity:1;stroke:#000000;stroke-width:0.40000013;stroke-miterlimit:4;stroke-dasharray:none;stroke-opacity:1" />
        <path
           style="fill:none;fill-opacity:1;stroke:#000000;stroke-width:0.40000001;stroke-miterlimit:4;stroke-opacity:1"
           d="M 811.3812,427.09139 C 811.81359,426.88812 812.29047,426.78461 812.78784,426.80568 C 814.61547,426.88313 816.03116,428.61364 815.94788,430.66843 M 815.94788,430.66843 C 815.86459,432.72323 814.31372,434.32803 812.4861,434.25059 C 811.36244,434.20298 810.39449,433.53052 809.83489,432.54199"
           id="path5835"
           sodipodi:nodetypes="ccsccss" />
        <path
           id="path5837"
           d="M 823.80704,417.75513 C 824.45996,419.43762 823.6648,420.96854 822.03213,421.17236 C 820.39945,421.37617 819.11793,420.55241 818.46503,418.86994 C 817.81213,417.18744 818.6073,415.65654 820.23997,415.45272 C 821.87262,415.24891 823.15416,416.07264 823.80704,417.75513"
           style="fill:none;fill-opacity:1;stroke:#000000;stroke-width:0.39999992;stroke-miterlimit:4;stroke-opacity:1"
           sodipodi:nodetypes="csssc" />
        <path
           style="fill:none;fill-opacity:1;stroke:#000000;stroke-width:0.40000004;stroke-miterlimit:4;stroke-opacity:1"
           d="M 807.71333,446.56451 C 808.29773,445.78668 809.12767,445.31499 810.02927,445.35319 C 811.69123,445.42362 812.97036,447.2001 812.8845,449.31858 C 812.79863,451.43706 811.38013,453.09923 809.71817,453.02881 C 808.99008,452.99796 808.33548,452.63969 807.83692,452.06866"
           id="path5839"
           sodipodi:nodetypes="ccscss" />
        <path
           style="fill:none;fill-opacity:1;stroke:#000000;stroke-width:0.39999986;stroke-miterlimit:4;stroke-opacity:1"
           d="M 815.44288,466.18556 C 815.54974,467.59223 814.76933,469.6136 812.75095,469.20057 C 810.67986,468.77675 809.86426,466.74199 809.90494,465.74074 C 809.97168,464.09803 811.14701,462.83381 812.41142,462.92803 C 813.98815,463.04712 815.34918,464.45434 815.44288,466.18556 z "
           id="path5841"
           sodipodi:nodetypes="csssc" />
        <path
           style="fill:none;fill-opacity:1;stroke:#000000;stroke-width:0.40000013;stroke-miterlimit:4;stroke-opacity:1"
           d="M 823.82227,474.22924 C 824.10266,475.2254 823.00954,476.48255 821.38224,477.03536 C 819.75496,477.58817 818.2067,477.22835 817.92631,476.23218 C 817.64591,475.236 818.73904,473.97885 820.36631,473.42603 C 821.99361,472.87322 823.54189,473.23305 823.82227,474.22924 z "
           id="path5843" />
        <path
           style="fill:none;fill-opacity:1;stroke:#000000;stroke-width:0.40000004;stroke-miterlimit:4;stroke-opacity:1"
           d="M 833.09841,418.66859 C 832.09066,418.73347 831.10025,418.04702 830.11549,416.75602 C 829.13075,415.46503 829.40681,414.14959 830.00323,414.00409 C 830.55471,413.86958 831.52313,413.87793 832.50788,415.16893 C 833.49263,416.45992 833.73819,418.24053 833.09841,418.66859 z "
           id="path5845"
           sodipodi:nodetypes="csssc" />
        <path
           id="path5847"
           d="M 769.81088,462.76022 C 771.83154,483.81514 779.70146,503.44988 795.01581,508.69716 C 801.33749,510.86321 817.57327,513.03225 826.57305,511.94423 C 834.40948,510.99686 839.2469,508.70189 843.88795,503.17567 C 857.37877,487.11181 863.39227,464.42359 864.1775,437.92301 C 864.57703,404.80103 850.01374,381.1944 836.31828,379.14477 C 832.20455,378.52912 825.37577,378.54331 818.85107,378.85806"
           style="fill:none;fill-opacity:1;stroke:#000000;stroke-width:0.40000027;stroke-miterlimit:4;stroke-opacity:1" />
        <path
           style="fill:none;fill-opacity:1;stroke:#000000;stroke-width:0.40000007;stroke-miterlimit:4;stroke-dasharray:none;stroke-opacity:1"
           d="M 834.6668,441.77985 C 833.23045,441.70766 832.16256,443.9998 831.86543,446.45275 C 831.59196,448.7105 831.85497,451.47747 832.8184,452.63463 C 833.75075,453.6553 834.67006,452.99851 835.47518,451.67253 C 836.03032,450.75823 837.05563,448.22985 836.68684,445.17526 C 836.51872,443.78274 835.65941,441.82974 834.6668,441.77985 z "
           id="path4165"
           sodipodi:nodetypes="cscsss" />
      </g>
      <path
         sodipodi:nodetypes="ccssscssssscccs"
         id="path5866"
         d="M 673.64642,367.30937 C 649.5468,366.35587 625.13278,365.50805 601.07143,364.63019 C 583.09428,363.69925 565.6767,363.7248 548.03572,364.45162 C 529.68789,365.20756 519.17346,374.06856 511.42857,383.20162 C 504.29919,391.60884 497.86283,403.0092 490.71429,414.80877 C 482.22165,428.82694 473.78353,435.50383 465.71428,440.70163 C 482.42711,429.5338 487.02876,417.32146 495.03064,404.35971 C 502.33164,392.53327 509.20796,381.02392 515.17857,375.16591 C 522.09091,368.38393 528.07833,365.41704 537.5,362.66591 C 544.24275,360.69702 562.8605,359.88955 586.51523,360.31385 C 616.11187,360.84473 644.19722,361.71135 673.77163,363.1435 M 674.52607,363.18814 C 698.71825,364.35965 722.13314,365.86606 746.25,368.20162 C 751.39583,368.47082 752.33804,371.07447 745.71429,370.70162 C 722.49105,369.36482 699.00257,368.35832 674.41665,367.38558"
         style="opacity:1;fill:#ffffff;fill-opacity:1;stroke:#000000;stroke-width:0.40000001;stroke-miterlimit:4;stroke-dasharray:none;stroke-opacity:1" />
      <path
         sodipodi:nodetypes="cssssc"
         id="path6760"
         d="M 782.48942,359.60517 C 776.61558,361.63717 768.74296,361.75485 759.63472,362.00428 C 743.86025,362.43627 724.7484,359.99115 703.31871,357.71113 C 689.57219,356.24857 673.01138,355.26923 655.96781,354.30187 C 628.78608,352.75908 601.34673,352.31181 573.21429,352.66591 C 555.94465,352.88328 541.32863,352.33683 528.82659,359.46355"
         style="opacity:1;fill:none;fill-opacity:1;stroke:#000000;stroke-width:0.40000001;stroke-miterlimit:4;stroke-dasharray:none;stroke-opacity:1" />
      <path
         sodipodi:nodetypes="cccccccc"
         d="M 892.59604,370.46431 C 896.0522,378.04045 895.986,384.98525 895.75277,393.19274 C 895.30632,400.34799 894.63065,412.68027 893.73247,414.65848 C 892.67032,416.78184 883.33626,420.29062 880.85302,422.61343 C 879.35026,424.10613 878.76641,428.52295 881.32112,428.03666 C 883.41918,427.67479 883.85836,426.53824 885.75705,426.30205 C 886.47633,426.39046 886.25727,426.94062 885.99338,427.27736 C 880.36995,431.03832 863.93296,441.30125 863.93296,441.30125"
         style="fill:none;fill-opacity:1;stroke:#000000;stroke-width:0.40000001;stroke-miterlimit:4;stroke-opacity:1"
         id="path2205" />
      <g
         style="stroke:#000000;stroke-opacity:1"
         transform="translate(-3.3739456,-0.8434864)"
         id="g4249">
        <path
           style="opacity:1;fill:#ffffff;fill-opacity:1;stroke:#000000;stroke-width:0.40000001;stroke-miterlimit:4;stroke-dasharray:none;stroke-opacity:1"
           d="M 763.92857,360.96948 C 758.84169,360.89204 761.00533,366.40896 762.27903,367.56672 C 763.76122,368.91399 770.82797,367.18325 775.37246,368.43885 C 776.52637,368.75767 778.96501,370.2573 781.51786,369.0052 C 784.57331,367.50659 783.51025,364.07135 782.67857,362.21948 C 781.8039,360.2719 782.67494,359.51958 776.51786,359.27305 C 773.43994,359.14981 769.08129,361.04792 763.92857,360.96948 z "
           id="path6764"
           sodipodi:nodetypes="cssssss" />
        <path
           style="opacity:1;fill:none;fill-opacity:1;stroke:#000000;stroke-width:0.40000001;stroke-miterlimit:4;stroke-dasharray:none;stroke-opacity:1"
           d="M 760.8144,363.11234 C 761.28145,364.88658 762.45094,365.01584 763.83929,364.80877 C 768.63875,364.09293 772.27563,364.32272 776.16072,364.36234 C 779.96557,364.40114 780.64038,363.11239 780.53572,361.86234 C 780.43456,360.65409 780.43681,360.08163 779.28572,359.45162"
           id="path6766"
           sodipodi:nodetypes="csssc" />
      </g>
      <path
         sodipodi:nodetypes="cccccc"
         id="path4666"
         d="M 887.41901,422.10836 C 885.92717,424.88628 886.72804,426.14897 887.16647,428.16927 C 887.91636,429.86831 889.15935,430.89684 890.57574,431.26287 C 896.43756,432.37098 905.30242,428.99175 907.36953,424.25493 C 908.53569,419.80852 901.41892,417.15759 896.13158,416.99446 C 891.92362,419.45934 889.5179,420.79221 887.41901,422.10836 z "
         style="opacity:1;fill:#ffffff;fill-opacity:1;stroke:#000000;stroke-width:0.40000001;stroke-miterlimit:4;stroke-dasharray:none;stroke-opacity:1" />
      <g
         style="stroke:#000000;stroke-opacity:1"
         transform="matrix(0.9994835,-3.213605e-2,3.213605e-2,0.9994835,-15.309087,20.007352)"
         id="g6337">
        <path
           style="fill:#ffffff;fill-rule:evenodd;stroke:#000000;stroke-width:0.40000001;stroke-linecap:butt;stroke-linejoin:miter;stroke-miterlimit:4;stroke-dasharray:none;stroke-opacity:1"
           d="M 610.54493,382.95123 C 609.59502,379.61553 610.96814,377.70144 614.10152,377.78917 C 628.93636,378.20826 641.92085,378.50345 656.25687,379.98513 C 667.61031,381.16522 668.90992,387.48547 668.97223,391.5236 C 669.13606,401.85175 663.10437,404.99497 659.15182,405.53172 C 649.56572,406.83349 635.55301,406.71351 625.50671,406.23887 C 622.08475,406.07721 619.31129,405.98468 617.08526,400.99647 C 614.37621,394.92588 611.75454,387.19886 610.54493,382.95123 z "
           id="path4167"
           sodipodi:nodetypes="csssssss" />
        <path
           sodipodi:nodetypes="cssss"
           id="path6115"
           d="M 660.69115,386.70218 C 658.9937,386.82891 657.27844,389.06956 657.43739,392.74327 C 657.68275,398.41331 660.39947,399.43023 661.27356,399.33274 C 663.10026,399.12902 664.23846,396.84934 664.47214,393.55298 C 664.784,389.15359 662.81931,386.5433 660.69115,386.70218 z "
           style="fill:none;stroke:#000000;stroke-width:0.39999998;stroke-miterlimit:4;stroke-dasharray:none;stroke-opacity:1" />
        <path
           style="fill:none;stroke:#000000;stroke-width:0.40000001;stroke-miterlimit:4;stroke-dasharray:none;stroke-opacity:1"
           d="M 660.13381,383.93968 C 657.21867,384.13113 654.26034,387.3325 654.5115,392.5621 C 654.8991,400.63349 659.5575,402.06377 661.05886,401.9193 C 664.19639,401.61737 666.16413,398.3642 666.5849,393.66931 C 667.14644,387.40343 663.78869,383.69966 660.13381,383.93968 z "
           id="path6135"
           sodipodi:nodetypes="cssss" />
        <path
           style="fill:none;stroke:#000000;stroke-width:0.39999998;stroke-miterlimit:4;stroke-dasharray:none;stroke-opacity:1"
           d="M 615.13893,380.9979 C 625.51761,381.34547 637.51147,381.62299 648.95786,382.46403 C 650.28203,382.5234 651.25197,383.19356 650.9421,384.48844 C 650.47277,386.44967 650.25943,387.61083 650.10758,390.01496 C 650.01757,391.44 648.94647,391.72456 647.74209,391.74124 C 637.62195,391.68025 627.67426,391.28499 617.13438,390.82562"
           id="path12384"
           sodipodi:nodetypes="ccsscc" />
        <path
           style="fill:none;stroke:#000000;stroke-width:0.40000001;stroke-miterlimit:4;stroke-dasharray:none;stroke-opacity:1"
           d="M 617.50972,393.54792 C 628.06006,393.96952 637.48196,394.4364 648.05056,394.48152 C 648.89688,394.49321 649.78359,394.3777 649.8721,395.30093 C 650.14839,398.18292 650.81163,400.02142 651.75748,402.38371 C 652.05534,403.12763 651.65844,403.59928 651.06737,403.63878 C 642.41148,404.06323 633.55788,403.73867 622.54814,403.35077"
           id="path12386"
           sodipodi:nodetypes="ccsscc" />
      </g>
      <path
         sodipodi:nodetypes="cssc"
         id="path15303"
         d="M 413.57143,364.6302 C 442.44978,350.98343 455.56316,345.53348 481.80366,340.64035 C 528.39042,331.95321 560.5871,336.13895 600.17857,336.59449 C 629.99567,336.93756 656.06256,336.06875 689.81256,340.12792"
         style="fill:none;stroke:#000000;stroke-width:0.40000001;stroke-miterlimit:4;stroke-dasharray:none;stroke-opacity:1" />
      <path
         sodipodi:nodetypes="ccsss"
         id="path15308"
         d="M 441.18412,383.72256 C 440.75044,368.51542 500.70487,353.20018 527.08408,355.69718 C 535.24975,356.65552 529.90272,358.78245 526.28948,360.99413 C 519.1744,365.3493 511.71883,372.29265 504.71628,384.05036 C 499.81624,392.27784 496.46461,397.83069 493.20698,403.92561"
         style="fill:none;stroke:#000000;stroke-width:0.40000001;stroke-miterlimit:4;stroke-dasharray:none;stroke-opacity:1" />
      <g
         style="stroke:#000000;stroke-opacity:1"
         id="g6344">
        <path
           style="fill:none;stroke:#000000;stroke-width:0.40000001;stroke-miterlimit:4;stroke-dasharray:none;stroke-opacity:1"
           d="M 304.56099,421.85582 C 302.02439,415.54346 300.28324,410.89311 297.48992,401.14769 C 294.62885,391.16586 300.52467,390.54775 309.10668,390.5411 C 330.29966,390.52467 358.24084,392.52937 371.86241,394.5817 C 390.47192,397.38554 402.51253,404.35614 407.59655,415.92117 C 409.83705,421.01781 406.84805,427.62122 398.75772,427.91674 C 369.08096,429.00075 344.9924,428.93448 317.94551,428.42181 C 312.78325,428.3235 306.81274,427.45934 304.56099,421.85582 z "
           id="path2211"
           sodipodi:nodetypes="csssssss" />
        <path
           sodipodi:nodetypes="csssssss"
           id="path2213"
           d="M 312.47042,420.08101 C 310.15343,415.01398 308.70096,411.19247 306.23956,403.29092 C 303.71844,395.19768 308.69117,395.31079 316.25344,395.30539 C 334.9282,395.29207 354.80044,396.03483 372.52371,398.8204 C 388.37354,401.31152 397.11937,406.04018 403.04042,414.3478 C 406.43789,419.11467 405.44236,424.15243 395.47439,424.36383 C 371.74186,424.86717 348.73132,424.7705 324.70649,423.76319 C 319.65041,423.55064 314.01578,423.46057 312.47042,420.08101 z "
           style="fill:none;stroke:#000000;stroke-width:0.40000001;stroke-miterlimit:4;stroke-dasharray:none;stroke-opacity:1" />
        <path
           style="fill:none;stroke:#000000;stroke-width:0.40000001;stroke-miterlimit:4;stroke-dasharray:none;stroke-opacity:1"
           d="M 305.82369,397.8647 C 327.62213,398.99308 358.70988,400.06042 379.21293,400.20516"
           id="path2375"
           sodipodi:nodetypes="cc" />
        <path
           sodipodi:nodetypes="cc"
           id="path3346"
           d="M 305.69742,401.27397 C 327.66076,402.81459 367.284,403.42212 388.46679,403.04173"
           style="fill:none;stroke:#000000;stroke-width:0.40000001;stroke-miterlimit:4;stroke-dasharray:none;stroke-opacity:1" />
        <path
           style="fill:none;stroke:#000000;stroke-width:0.40000001;stroke-miterlimit:4;stroke-dasharray:none;stroke-opacity:1"
           d="M 306.70757,404.55697 C 328.61389,406.00898 373.23544,406.73263 394.50155,406.18314"
           id="path3348"
           sodipodi:nodetypes="cc" />
        <path
           sodipodi:nodetypes="cc"
           id="path3350"
           d="M 307.71772,407.71369 C 329.33639,409.2016 376.57234,409.81357 398.34827,409.16129"
           style="fill:none;stroke:#000000;stroke-width:0.40000001;stroke-miterlimit:4;stroke-dasharray:none;stroke-opacity:1" />
        <path
           style="fill:none;stroke:#000000;stroke-width:0.40000001;stroke-miterlimit:4;stroke-dasharray:none;stroke-opacity:1"
           d="M 308.85414,411.12296 C 330.65258,412.25134 379.58869,412.74598 401.16317,412.13945"
           id="path3352"
           sodipodi:nodetypes="cc" />
        <path
           sodipodi:nodetypes="cc"
           id="path3354"
           d="M 309.99056,414.02715 C 331.789,415.15553 381.94447,416.05065 403.42966,415.0373"
           style="fill:none;stroke:#000000;stroke-width:0.40000001;stroke-miterlimit:4;stroke-dasharray:none;stroke-opacity:1" />
        <path
           style="fill:none;stroke:#000000;stroke-width:0.40000001;stroke-miterlimit:4;stroke-dasharray:none;stroke-opacity:1"
           d="M 311.00071,416.93134 C 332.92542,418.5648 381.31312,418.95484 404.43981,417.81522"
           id="path3356"
           sodipodi:nodetypes="cc" />
        <path
           sodipodi:nodetypes="cc"
           id="path3358"
           d="M 312.51594,420.08807 C 334.56692,421.72153 383.33344,421.9853 404.56609,420.71941"
           style="fill:none;stroke:#000000;stroke-width:0.40000001;stroke-miterlimit:4;stroke-dasharray:none;stroke-opacity:1" />
        <path
           id="path2341"
           style="fill:none;stroke:#000000;stroke-width:0.40000001;stroke-miterlimit:4;stroke-opacity:1"
           d="M 318.77261,395.33932 C 321.17531,404.85159 324.70963,414.36384 328.11652,423.87611"
           sodipodi:nodetypes="cc" />
        <path
           id="path2345"
           style="fill:none;stroke:#000000;stroke-width:0.40000001;stroke-miterlimit:4;stroke-opacity:1"
           d="M 349.52547,424.50747 C 346.27719,414.82684 343.6501,405.48804 341.40727,395.80741"
           sodipodi:nodetypes="cc" />
        <path
           id="path2351"
           style="fill:none;stroke:#000000;stroke-width:0.40000001;stroke-miterlimit:4;stroke-opacity:1"
           d="M 364.95088,397.68678 C 366.81621,407.52942 368.48267,414.96967 371.59718,424.63374"
           sodipodi:nodetypes="cc" />
        <path
           id="path2359"
           style="fill:none;stroke:#000000;stroke-width:0.40000001;stroke-miterlimit:4;stroke-opacity:1"
           d="M 386.96425,402.37433 C 388.56078,411.16361 390.08332,417.01538 392.60211,424.44434"
           sodipodi:nodetypes="cc" />
      </g>
      <path
         sodipodi:nodetypes="cccsccsss"
         id="path6285"
         d="M 234.29029,429.83824 C 299.03218,432.62442 363.74809,435.95533 428.52582,437.73202 C 440.32514,438.10702 450.87614,436.75252 463.69372,433.97535 C 477.87355,430.38643 472.93322,443.77564 463.42002,447.92997 C 449.83924,453.86058 442.25208,452.43325 427.84978,452.99327 C 370.10273,452.15148 311.80042,447.19382 254.30591,445.08933 C 237.5538,443.06912 218.99176,442.08824 208.15959,437.703 C 202.55029,435.43217 204.02289,430.38159 210.09043,428.04928 C 214.80325,426.23771 220.72723,425.33468 227.2754,424.48342"
         style="fill:#ffffff;stroke:#000000;stroke-width:0.40000001;stroke-miterlimit:4;stroke-dasharray:none;stroke-opacity:1" />
      <g
         style="stroke:#000000;stroke-opacity:1"
         id="g6360">
        <path
           style="fill:none;stroke:#000000;stroke-width:0.40000001;stroke-miterlimit:4;stroke-dasharray:none;stroke-opacity:1"
           d="M 239.28804,400.62765 C 243.99793,390.27518 258.27004,390.20013 277.76,389.91337 C 283.25602,390.01488 288.6714,390.26314 291.54394,399.45162 C 293.79314,406.64621 295.579,411.60822 298.25456,419.98734 C 299.47208,423.80032 296.29105,426.29594 292.99489,426.23734 C 278.39518,425.98099 259.02111,422.73348 249.64799,420.52305 C 242.73529,418.89285 234.17439,411.86756 239.28804,400.62765 z "
           id="path4174"
           sodipodi:nodetypes="ccsssss" />
        <path
           style="fill:none;stroke:#000000;stroke-width:0.40000001;stroke-miterlimit:4;stroke-dasharray:none;stroke-opacity:1"
           d="M 274.83675,392.2871 C 277.74904,402.86798 281.18227,412.76905 285.27823,422.40301"
           id="path4180"
           sodipodi:nodetypes="cc" />
        <path
           style="fill:none;stroke:#000000;stroke-width:0.40000001;stroke-miterlimit:4;stroke-dasharray:none;stroke-opacity:1"
           d="M 263.14032,392.26545 C 265.23593,401.94751 268.80245,411.87566 272.05357,421.32662"
           id="path4182"
           sodipodi:nodetypes="cc" />
        <path
           style="fill:none;stroke:#000000;stroke-width:0.40000001;stroke-miterlimit:4;stroke-dasharray:none;stroke-opacity:1"
           d="M 251.19135,393.87708 C 253.44781,402.48371 256.32596,411.36972 259.46429,419.54091"
           id="path4184"
           sodipodi:nodetypes="cc" />
        <path
           sodipodi:nodetypes="ccsssss"
           id="path4190"
           d="M 241.33555,401.26986 C 245.64121,392.08308 258.87015,392.25076 275.54408,392.30467 C 280.4804,392.38961 285.34429,392.38603 287.9243,400.0745 C 289.94444,406.09459 291.57102,410.23885 293.95152,417.25779 C 295.70109,422.41643 293.12518,422.53651 289.22749,422.48748 C 276.11382,422.32639 258.7062,419.58337 250.29492,417.70604 C 241.71245,415.79051 237.21659,410.05829 241.33555,401.26986 z "
           style="fill:none;stroke:#000000;stroke-width:0.39999998;stroke-miterlimit:4;stroke-dasharray:none;stroke-opacity:1" />
        <path
           style="fill:none;stroke:#000000;stroke-width:0.40000001;stroke-miterlimit:4;stroke-dasharray:none;stroke-opacity:1"
           d="M 241.86839,400.32694 C 243.14327,406.60601 244.88279,411.2655 246.72976,416.55252"
           id="path4192"
           sodipodi:nodetypes="cc" />
        <path
           style="fill:none;stroke:#000000;stroke-width:0.40000001;stroke-miterlimit:4;stroke-dasharray:none;stroke-opacity:1"
           d="M 290.89286,408.91591 C 274.61479,408.93154 256.98402,407.61035 239.87822,406.12189"
           id="path4194"
           sodipodi:nodetypes="cc" />
        <path
           sodipodi:nodetypes="cc"
           id="path4196"
           d="M 289.55357,405.2552 C 273.2755,405.27083 257.82008,404.6008 240.71428,403.11234"
           style="fill:none;stroke:#000000;stroke-width:0.40000001;stroke-miterlimit:4;stroke-dasharray:none;stroke-opacity:1" />
        <path
           style="fill:none;stroke:#000000;stroke-width:0.40000001;stroke-miterlimit:4;stroke-dasharray:none;stroke-opacity:1"
           d="M 288.57143,401.95163 C 272.29336,402.05655 259.18104,401.56509 242.07524,400.07663"
           id="path4198"
           sodipodi:nodetypes="cc" />
        <path
           sodipodi:nodetypes="cc"
           id="path4200"
           d="M 287.5,398.73735 C 271.75764,398.84227 261.14083,398.17224 244.66003,397.04092"
           style="fill:none;stroke:#000000;stroke-width:0.40000001;stroke-miterlimit:4;stroke-dasharray:none;stroke-opacity:1" />
        <path
           style="fill:none;stroke:#000000;stroke-width:0.40000001;stroke-miterlimit:4;stroke-dasharray:none;stroke-opacity:1"
           d="M 285.26786,395.52306 C 269.5255,395.71726 265.37425,395.28893 249.69702,394.42547"
           id="path4202"
           sodipodi:nodetypes="cc" />
        <path
           sodipodi:nodetypes="cc"
           id="path4204"
           d="M 292.14286,412.39805 C 275.86479,412.41368 257.19191,411.02937 240.08611,409.54091"
           style="fill:none;stroke:#000000;stroke-width:0.40000001;stroke-miterlimit:4;stroke-dasharray:none;stroke-opacity:1" />
        <path
           style="fill:none;stroke:#000000;stroke-width:0.40000001;stroke-miterlimit:4;stroke-dasharray:none;stroke-opacity:1"
           d="M 293.48214,416.01413 C 277.20407,416.02976 258.74357,414.31446 241.63777,412.826"
           id="path4206"
           sodipodi:nodetypes="cc" />
        <path
           sodipodi:nodetypes="cc"
           id="path4208"
           d="M 294.48646,419.49849 C 278.7441,419.42484 260.40938,417.85973 245.08929,415.74627"
           style="fill:none;stroke:#000000;stroke-width:0.40000001;stroke-miterlimit:4;stroke-dasharray:none;stroke-opacity:1" />
      </g>
      <g
         style="stroke:#000000;stroke-opacity:1"
         id="g4170">
        <path
           sodipodi:nodetypes="cssccscccc"
           id="path4339"
           d="M 236.47228,444.857 C 234.19392,439.3079 233.47927,436.35892 233.56298,431.27723 C 233.68763,423.71138 235.71641,417.96486 236.63169,413.63373 C 237.54751,409.3001 238.36106,408.95125 242.57401,408.33172 C 245.21583,408.00203 247.8659,408.1793 250.43703,408.82774 C 251.47616,409.16788 252.11643,410.08766 252.43047,411.43177 C 253.48478,415.94427 253.97457,423.56594 254.44274,430.70065 C 240.96755,430.78625 241.96635,444.29164 252.76699,444.86572 C 251.95289,448.58808 249.94069,449.69587 247.02289,449.57303 C 243.01885,449.22102 237.94828,449.13134 236.47228,444.857 z "
           style="fill:#ffffff;stroke:#000000;stroke-width:0.40000004;stroke-miterlimit:4;stroke-dasharray:none;stroke-opacity:1" />
        <path
           sodipodi:nodetypes="ccssc"
           id="path4341"
           d="M 246.2721,446.93491 C 243.54523,443.24878 241.45254,439.68463 241.16203,433.60351 C 240.87205,424.76568 242.14208,421.69163 243.13999,413.35447 C 243.43586,410.88258 243.90766,410.08749 245.03582,409.77511 C 246.49637,409.37069 246.20146,409.55913 247.65346,409.37081"
           style="fill:none;stroke:#000000;stroke-width:0.39999998;stroke-miterlimit:4;stroke-dasharray:none;stroke-opacity:1" />
      </g>
      <g
         style="stroke:#000000;stroke-opacity:1"
         transform="translate(0,1.0603288)"
         id="g4210">
        <path
           style="fill:#ffffff;stroke:#000000;stroke-width:0.40000001;stroke-miterlimit:4;stroke-dasharray:none;stroke-opacity:1"
           d="M 336.94451,450.46026 C 334.90871,446.41486 333.08617,440.76876 333.60288,435.61914 C 334.50261,426.65228 334.74921,423.20505 335.79278,418.79473 C 336.83696,414.38187 336.88066,413.90037 342.44171,413.39579 C 344.12852,413.24274 345.58744,413.23663 347.29568,413.29612 C 348.60919,413.34187 349.99102,413.48697 351.40682,413.90088 C 352.59159,414.24724 353.3216,415.18383 353.67966,416.55252 C 354.88174,421.14751 355.03177,429.75614 355.38488,434.11179 C 341.62121,433.08828 342.37656,449.32097 354.46157,449.30479 C 352.66583,452.26351 350.315,454.66807 347.51414,454.63348 C 343.20494,454.23411 339.09254,454.72866 336.94451,450.46026 z "
           id="path3360"
           sodipodi:nodetypes="csssssscccs" />
        <path
           style="fill:none;stroke:#000000;stroke-width:0.40000001;stroke-miterlimit:4;stroke-dasharray:none;stroke-opacity:1"
           d="M 347.81025,452.01448 C 344.88448,449.42275 343.07554,446.17261 342.04722,440.9325 C 341.44184,433.08023 342.38021,426.73478 343.24492,419.27305 C 343.52339,416.87011 344.31714,415.80388 345.89286,415.50139 C 347.16078,415.25799 348.05363,415.03922 349.03478,414.8647"
           id="path4331"
           sodipodi:nodetypes="ccsss" />
      </g>
      <path
         sodipodi:nodetypes="csss"
         id="path4218"
         d="M 205.35714,358.02305 C 219.66649,348.67168 237.89458,338.29093 258.21429,333.73734 C 279.82428,328.8946 302.91893,326.55883 327.28943,327.15402 C 351.32884,327.74113 374.54562,328.9849 400.27295,330.94209"
         style="fill:none;stroke:#000000;stroke-width:0.40000001;stroke-miterlimit:4;stroke-dasharray:none;stroke-opacity:1" />
      <path
         sodipodi:nodetypes="ccs"
         id="path4224"
         d="M 358.71126,338.53813 C 362.68016,339.32658 366.8879,339.98529 371.25,339.98734 C 385.30097,340.43488 397.55717,340.50029 412.28714,339.92479"
         style="fill:none;stroke:#000000;stroke-width:0.40000001;stroke-miterlimit:4;stroke-dasharray:none;stroke-opacity:1" />
      <path
         sodipodi:nodetypes="ccc"
         id="path4220"
         d="M 371.23106,340.03346 L 371.2642,343.04334 C 353.25821,347.91939 337.95251,355.20042 322.99628,363.77205"
         style="fill:none;stroke:#000000;stroke-width:0.40000001;stroke-miterlimit:4;stroke-dasharray:none;stroke-opacity:1" />
      <path
         sodipodi:nodetypes="csssc"
         id="path6166"
         d="M 423.75,359.80877 C 410.10994,364.03708 397.17888,366.3743 384.46429,366.77305 C 351.70344,367.8005 318.72912,369.15335 287.67857,364.6302 C 282.8397,363.92532 280.95863,361.39465 287.14286,358.91591 C 303.0488,352.54055 334.07143,343.30877 357.14286,339.09448"
         style="fill:none;stroke:#000000;stroke-width:0.40000001;stroke-miterlimit:4;stroke-dasharray:none;stroke-opacity:1" />
      <path
         sodipodi:nodetypes="csssssssc"
         id="path6168"
         d="M 221.40066,366.25279 C 236.86565,358.22368 262.43839,350.11163 286.37825,344.07407 C 298.42917,341.03487 298.039,347.91498 292.6917,349.75618 C 275.55435,355.657 259.58111,362.54439 247.73991,370.84312 C 242.96897,374.18676 239.09197,378.76751 235.87062,384.10137 C 234.98874,385.56156 233.55104,385.1092 234.10285,383.9751 C 235.59277,380.91296 238.26765,377.3625 241.17392,373.11596 C 244.07298,368.87996 242.39424,368.36241 238.396,368.31774 C 233.59798,368.26414 228.26384,369.29004 223.46562,370.59058"
         style="fill:none;stroke:#000000;stroke-width:0.40000001;stroke-miterlimit:4;stroke-dasharray:none;stroke-opacity:1" />
      <g
         style="stroke:#000000;stroke-opacity:1"
         id="g6388">
        <path
           style="fill:none;fill-opacity:1;stroke:#000000;stroke-width:0.39999971;stroke-miterlimit:4;stroke-dasharray:none;stroke-opacity:1"
           d="M 274.39614,445.97541 C 275.40849,459.41674 279.53842,470.47536 285.73483,477.10525 C 297.42067,489.60858 307.8362,488.78777 316.34463,479.11281 C 319.53634,475.48351 322.25498,471.54821 324.48836,467.27488"
           id="path6223" />
        <path
           sodipodi:nodetypes="cs"
           d="M 289.39398,507.58704 C 269.54827,500.47021 256.79464,470.01078 256.04124,445.35091"
           style="fill:none;fill-opacity:1;stroke:#000000;stroke-width:0.40000004;stroke-miterlimit:4;stroke-opacity:1"
           id="path6178" />
        <path
           sodipodi:nodetypes="cc"
           id="path6180"
           d="M 289.38872,478.41758 C 298.88925,479.57437 305.47525,472.02955 310.01459,464.58833"
           style="fill:none;fill-opacity:1;stroke:#000000;stroke-width:0.39999995;stroke-miterlimit:4;stroke-dasharray:none;stroke-opacity:1" />
        <path
           style="fill:none;fill-opacity:1;stroke:#000000;stroke-width:0.39999992;stroke-miterlimit:4;stroke-dasharray:none;stroke-opacity:1"
           d="M 322.99672,466.98245 C 320.96111,470.8505 318.51863,474.42874 315.67893,477.74325 C 307.65758,487.1058 297.8383,487.90011 286.82148,475.80052 C 281.24073,469.67126 277.438,459.63058 276.2773,447.40479 L 276.14808,445.9689"
           id="path6219" />
        <path
           sodipodi:nodetypes="csssc"
           style="fill:none;fill-opacity:1;stroke:#000000;stroke-width:0.40000007;stroke-miterlimit:4;stroke-opacity:1"
           d="M 340.29094,469.14135 C 337.65343,480.40023 331.38774,491.11875 324.02008,499.69018 C 318.4956,506.11729 312.5617,508.92488 302.8086,510.36176 C 291.6076,512.01195 271.19133,510.34862 263.17491,508.21686 C 239.9717,502.04657 228.83193,470.99153 227.84869,442.64564"
           id="path6227" />
      </g>
      <g
         style="stroke:#000000;stroke-opacity:1"
         id="g6376">
        <path
           sodipodi:nodetypes="cscsss"
           id="path6176"
           d="M 297.23228,378.02124 C 298.74734,379.59786 302.77196,379.20928 306.13434,377.89341 C 309.22916,376.68227 312.3539,374.56134 312.70749,372.7661 C 312.92717,371.09477 311.08893,370.55341 308.5515,370.57881 C 306.80187,370.59635 302.53297,371.18744 299.17104,373.61229 C 297.6384,374.71774 296.18527,376.93166 297.23228,378.02124 z "
           style="fill:none;fill-opacity:1;stroke:#000000;stroke-width:0.39999983;stroke-miterlimit:4;stroke-dasharray:none;stroke-opacity:1" />
        <path
           style="fill:none;fill-opacity:1;stroke:#000000;stroke-width:0.40000001;stroke-miterlimit:4;stroke-dasharray:none;stroke-opacity:1"
           d="M 299.27231,376.66885 C 300.18926,377.65097 302.86929,377.2887 305.16122,376.3426 C 307.27075,375.47177 309.44861,374.0095 309.77804,372.8344 C 310.01236,371.7434 308.82662,371.44219 307.14865,371.52802 C 305.99164,371.58722 303.1394,372.08761 300.7886,373.75365 C 299.71691,374.51318 298.63861,375.99013 299.27231,376.66885 z "
           id="path6198"
           sodipodi:nodetypes="cscsss" />
      </g>
      <path
         sodipodi:nodetypes="csc"
         id="path6215"
         d="M 283.89309,446.51465 C 288.72971,457.23838 297.35643,462.22637 306.07143,463.91591 C 357.80954,473.94616 409.82055,473.37635 463.00023,474.77446"
         style="fill:none;stroke:#000000;stroke-width:0.40000001;stroke-miterlimit:4;stroke-dasharray:none;stroke-opacity:1" />
      <path
         sodipodi:nodetypes="cccc"
         id="path6229"
         d="M 580.92457,476.81873 C 583.21889,477.78976 583.32384,480.04258 585.23121,479.98927 C 642.94812,478.86687 698.218,475.95867 755.86695,472.86895 C 762.00652,472.44443 764.45123,467.43539 764.82748,464.33188"
         style="fill:none;stroke:#000000;stroke-width:0.40000001;stroke-miterlimit:4;stroke-dasharray:none;stroke-opacity:1" />
      <path
         sodipodi:nodetypes="ccccc"
         d="M 716.56021,475.18665 C 716.1775,481.29646 712.99874,486.78432 706.65401,487.61508 C 685.38669,489.4754 659.52701,490.8202 634.48761,491.10964 C 630.59092,491.05711 629.55096,488.89682 627.80562,485.10245 L 578.31233,486.50558"
         style="fill:none;stroke:#000000;stroke-width:0.40000001;stroke-miterlimit:4;stroke-opacity:1"
         id="path6231" />
      <path
         sodipodi:nodetypes="cc"
         id="path6242"
         d="M 575.71429,494.27305 C 594.79472,503.93207 613.77251,496.02914 621.78571,485.34448"
         style="fill:none;stroke:#000000;stroke-width:0.40000001;stroke-miterlimit:4;stroke-dasharray:none;stroke-opacity:1" />
      <path
         sodipodi:nodetypes="cc"
         id="path6295"
         d="M 588.42784,470.67567 L 585.28585,479.89579"
         style="fill:none;stroke:#000000;stroke-width:0.40000001;stroke-miterlimit:4;stroke-dasharray:none;stroke-opacity:1" />
      <path
         id="path6297"
         d="M 761.71372,470.52965 L 770.5277,468.70721"
         style="fill:none;stroke:#000000;stroke-width:0.40000001;stroke-miterlimit:4;stroke-dasharray:none;stroke-opacity:1" />
      <path
         sodipodi:nodetypes="ccccccccccc"
         d="M 469.54077,328.91173 C 449.93706,330.75777 431.4436,334.24275 414.0818,339.64995 C 413.73315,339.77827 413.63261,340.04616 413.63601,340.3725 L 413.7301,342.56032 C 413.71666,342.92133 413.53455,343.03028 413.22444,343.05144 C 398.58593,343.89775 385.9319,343.72391 371.25,343.02305 C 366.7399,342.52434 362.2298,342.44557 357.7197,341.17418 C 357.4942,341.10047 357.32889,340.9496 357.28955,340.68316 L 357.16928,339.26591 C 357.05208,338.26189 357.69909,338.02207 358.44413,337.88029 C 405.16151,328.65639 447.23828,325.14898 496.74251,323.61849"
         style="fill:none;stroke:#000000;stroke-width:0.40000001;stroke-miterlimit:4;stroke-opacity:1"
         id="path3273" />
      <path
         sodipodi:nodetypes="cssssc"
         id="path6397"
         d="M 233.72486,386.33665 C 231.99535,389.97887 232.07257,393.89961 236.71841,392.3304 C 249.20939,388.11136 265.8464,386.40678 279.52919,387.55891 C 293.35352,388.72296 293.11611,388.19853 305.24217,387.69146 C 332.94741,386.53293 362.62286,389.15963 384.50173,393.92089 C 396.74875,396.58607 399.87355,403.60755 400.47294,391.66769"
         style="fill:none;stroke:#000000;stroke-width:0.40000001;stroke-miterlimit:4;stroke-dasharray:none;stroke-opacity:1" />
      <path
         sodipodi:nodetypes="csc"
         id="path2280"
         d="M 690.00898,324.99952 C 718.34221,323.99286 740.69935,324.81405 769.93792,328.08403 C 775.13783,328.66558 782.17466,330.71292 785.01178,331.54756"
         style="fill:none;stroke:#000000;stroke-width:0.40000001;stroke-miterlimit:4;stroke-dasharray:none;stroke-opacity:1" />
      <path
         sodipodi:nodetypes="csc"
         id="path3252"
         d="M 704.58184,343.13491 C 719.30333,343.33224 728.48925,343.35289 740.16832,344.41484 C 742.97078,344.66966 746.51666,345.05602 747.99101,348.45929"
         style="fill:none;stroke:#000000;stroke-width:0.40000001;stroke-miterlimit:4;stroke-dasharray:none;stroke-opacity:1" />
      <path
         sodipodi:nodetypes="ccsc"
         id="path3254"
         d="M 750.97789,348.59183 C 750.72753,343.6694 749.84046,336.34309 758.33197,335.18243 C 766.41246,334.07796 773.72613,332.01102 782.39013,331.62657 C 792.3619,331.18408 797.51696,333.2657 804.65703,338.25362"
         style="fill:none;stroke:#000000;stroke-width:0.40000001;stroke-miterlimit:4;stroke-dasharray:none;stroke-opacity:1" />
      <path
         sodipodi:nodetypes="cc"
         id="path3256"
         d="M 762.21057,347.54607 C 761.82175,343.63587 762.1338,338.4579 756.70103,337.34659"
         style="fill:none;stroke:#000000;stroke-width:0.40000001;stroke-miterlimit:4;stroke-dasharray:none;stroke-opacity:1" />
      <path
         sodipodi:nodetypes="cc"
         id="path3269"
         d="M 489.73937,315.32402 C 499.06054,299.90447 509.00307,281.32634 520.07935,267.60703"
         style="fill:none;stroke:#000000;stroke-width:0.40000001;stroke-miterlimit:4;stroke-opacity:1" />
      <path
         sodipodi:nodetypes="csssssscsscsssccccssssc"
         d="M 482.47423,305.85643 C 482.47423,305.85643 494.79771,285.63712 504.02999,273.6165 C 509.63221,266.3223 519.05508,262.56149 526.89784,261.05793 C 545.08736,257.57077 565.71879,256.10706 585.75445,256.93422 C 610.73406,257.96549 629.209,259.26561 646.85489,262.03108 C 660.36437,264.14828 672.26327,267.15665 688.47235,272.11697 C 693.32445,273.60181 692.99534,275.17649 692.81567,277.55278 C 691.20901,298.8012 690.28954,319.33659 689.81127,340.11234 C 655.75513,333.4531 622.02792,324.54787 583.44594,319.96295 C 552.70758,316.31013 515.64916,315.26779 486.95412,321.09757 C 480.81214,322.3454 472.58527,324.55068 466.92048,324.83151 C 468.63267,321.76858 469.62724,320.45659 470.67947,320.0869 C 476.85622,317.91681 492.6199,314.5349 494.88601,314.10512 C 509.04958,311.41892 552.21546,309.12586 586.68181,313.4457 C 626.22026,318.40125 650.90632,324.2709 681.64866,331.30566 C 682.53154,331.52714 682.37174,330.99038 682.42777,330.43048 C 683.31258,313.84834 684.46921,297.28962 685.65236,280.72525 C 685.75106,279.46972 685.87595,278.95634 684.63615,278.52649 C 674.2695,274.84321 660.2879,270.48749 643.79048,267.85938 C 620.19577,264.10064 605.17919,263.18824 585.18897,262.72933 C 565.75122,262.2831 546.83866,262.20857 528.0414,265.83079 C 520.23351,267.33537 512.21729,269.97099 508.86882,273.72219 C 495.25775,288.97032 485.20672,302.25923 471.78169,319.68214"
         style="fill:#ffffff;stroke:#000000;stroke-width:0.40000001;stroke-miterlimit:4;stroke-opacity:1"
         id="path3260" />
      <g
         style="stroke:#000000;stroke-opacity:1"
         id="g4233">
        <path
           style="fill:none;fill-opacity:1;stroke:#000000;stroke-width:0.40000004;stroke-miterlimit:4;stroke-dasharray:none;stroke-opacity:1"
           d="M 528.58316,307.85854 C 528.34301,308.01747 528.22017,308.63387 528.81392,308.92298 C 541.40454,306.55588 558.5124,304.35034 574.58816,304.69144 C 575.00593,304.56738 574.92493,303.93988 574.56385,303.63141 C 562.27527,302.68211 548.53643,303.3769 528.58316,307.85854 z "
           id="path2286"
           sodipodi:nodetypes="ccccc" />
        <path
           style="fill:#ffffff;fill-opacity:1;stroke:#000000;stroke-width:0.40000001;stroke-miterlimit:4;stroke-dasharray:none;stroke-opacity:1"
           d="M 498.75217,321.81853 C 500.00232,323.04795 503.0595,321.94328 502.59586,320.36058 L 500.07758,315.32402 C 498.75217,315.14729 497.95692,315.50074 497.69184,316.38434 L 498.75217,321.81853 z "
           id="path4226"
           sodipodi:nodetypes="ccccc" />
        <path
           style="fill:#ffffff;fill-opacity:1;stroke:#000000;stroke-width:0.40000001;stroke-miterlimit:4;stroke-dasharray:none;stroke-opacity:1"
           d="M 548.53476,301.94368 C 535.12967,304.66161 524.04454,306.51518 500.71875,316.53125 C 500.31743,317.6202 500.86053,318.30878 501.625,318.46875 C 521.75738,309.83557 527.38188,308.13233 548.21878,303.03069 C 549.70124,302.95121 549.97199,303.41281 550.32814,304.60895 C 550.85669,305.14907 552.05673,305.08447 552.09831,304.30449 C 551.70872,303.13371 550.96218,302.16862 549.87394,301.95876 C 549.49525,301.4279 548.82006,301.44914 548.53476,301.94368 z "
           id="path4228"
           sodipodi:nodetypes="cccccccc" />
      </g>
      <path
         style="fill:#ffffff;fill-opacity:1;stroke:#000000;stroke-width:0.40000001;stroke-miterlimit:4;stroke-dasharray:none;stroke-opacity:1"
         d="M 599.15734,311.66913 C 598.58902,311.75133 598.64107,312.67702 599.12896,312.75922 C 611.91397,312.9181 628.85508,314.00821 644.62474,317.13308 C 645.23403,317.11244 645.38115,316.43575 645.06351,316.08708 C 633.16716,312.86411 619.59627,310.98484 599.15734,311.66913 z "
         id="path4240"
         sodipodi:nodetypes="ccccc" />
      <path
         style="fill:#ffffff;fill-opacity:1;stroke:#000000;stroke-width:0.40000001;stroke-miterlimit:4;stroke-dasharray:none;stroke-opacity:1"
         d="M 569.60503,325.37992 C 570.85518,326.60934 573.91236,325.50467 573.44872,323.92197 L 570.93044,318.88541 C 569.60503,318.70868 568.80978,319.06213 568.5447,319.94573 L 569.60503,325.37992 z "
         id="path4242"
         sodipodi:nodetypes="ccccc" />
      <path
         style="fill:#ffffff;fill-opacity:1;stroke:#000000;stroke-width:0.40000001;stroke-miterlimit:4;stroke-dasharray:none;stroke-opacity:1"
         d="M 620.06025,309.80813 C 602.38949,312.29119 591.52734,314.66808 571.55553,320.70987 C 570.75659,321.79882 571.43223,322.61994 572.1967,322.77991 C 591.73574,316.49365 601.63372,313.93198 620.86047,310.94435 C 622.34293,310.86487 622.47642,311.30844 622.56749,312.9022 C 623.09604,313.44232 624.20805,313.27831 624.34903,312.73028 C 624.35706,311.69204 623.96836,310.01601 621.65412,309.83929 C 621.27543,309.30843 620.34555,309.31359 620.06025,309.80813 z "
         id="path4244"
         sodipodi:nodetypes="cccccccc" />
      <g
         style="fill:#ffffff;stroke:#000000;stroke-opacity:1"
         id="g8357">
        <path
           style="fill:#ffffff;stroke:#000000;stroke-width:0.40000001;stroke-miterlimit:4;stroke-dasharray:none;stroke-opacity:1"
           d="M 630.09905,338.29964 C 629.0059,338.38285 627.9086,338.56513 626.78687,338.85006 C 623.24461,339.74984 622.85651,343.15198 628.76557,344.37326 C 632.15353,345.07348 635.57557,345.02286 638.25363,344.47364 C 641.40384,343.8276 641.7742,340.54036 638.63046,339.50807 C 637.98044,339.29462 637.34417,339.10753 636.71847,338.94737"
           id="path7370"
           sodipodi:nodetypes="csssss" />
        <path
           transform="matrix(0.8294166,-0.1560646,0.2910036,0.9697148,16.931376,111.16148)"
           style="fill:#ffffff;stroke:#000000;stroke-width:0.43393418;stroke-miterlimit:4;stroke-opacity:1"
           d="M 659.78958,320.82446 C 659.78958,326.20192 655.6034,330.56623 650.44543,330.56623 C 645.28747,330.56623 641.10129,326.20192 641.10129,320.82446 C 641.10129,315.44701 645.28747,311.08269 650.44543,311.08269 C 655.6034,311.08269 659.78958,315.44701 659.78958,320.82446 z "
           id="path8354" />
        <path
           id="path7373"
           style="fill:#ffffff;stroke:#000000;stroke-width:0.40000001;stroke-miterlimit:4;stroke-opacity:1"
           d="M 637.86317,342.40751 C 637.0297,341.16852 636.39101,339.63277 636.83224,337.95578 C 638.22848,332.64901 639.69429,328.48826 643.00375,322.86415 C 644.38467,323.00742 645.52973,322.91637 647.12723,322.54417 C 648.21902,321.97925 648.50862,318.27468 646.62118,317.4286 C 644.79016,317.41875 643.0488,317.51884 641.10131,317.97484 C 639.42138,319.25264 639.17003,320.63626 640.86223,322.16384 C 638.05579,326.04631 635.1626,330.32246 632.42737,335.09729 C 630.63868,338.21978 629.17838,339.32858 627.36645,340.72054"
           sodipodi:nodetypes="cscccccsc" />
      </g>
      <path
         sodipodi:nodetypes="cc"
         id="path5222"
         d="M 208.24742,402.38876 C 215.97567,414.45061 222.05544,421.67259 233.36458,428.63056"
         style="fill:none;fill-opacity:1;stroke:#000000;stroke-width:0.40000001;stroke-miterlimit:4;stroke-dasharray:none;stroke-opacity:1" />
      <g
         style="stroke:#000000;stroke-opacity:1"
         id="g5232">
        <path
           style="fill:#ffffff;fill-opacity:1;stroke:#000000;stroke-width:0.39999998;stroke-miterlimit:4;stroke-dasharray:none;stroke-opacity:1"
           d="M 218.6716,419.19792 C 219.66641,419.50171 221.52087,419.43037 222.78109,418.06871 C 224.63695,416.06347 224.32339,411.70749 222.45901,409.35628 C 220.12125,406.40808 217.04631,405.79175 214.73329,405.98516 C 213.54901,406.08419 211.49025,407.03589 211.24638,407.82436"
           id="path5230"
           sodipodi:nodetypes="csssc" />
        <path
           style="fill:#ffffff;fill-opacity:1;stroke:#000000;stroke-width:0.40000001;stroke-miterlimit:4;stroke-dasharray:none;stroke-opacity:1"
           d="M 211.71509,407.73085 C 208.07917,408.89873 203.64011,411.84751 205.34208,416.35315 C 206.59331,419.66554 211.07735,420.85463 215.18276,420.1957 C 217.48775,419.82574 219.69087,418.91866 221.18088,417.75896 C 223.03244,416.31786 222.8407,412.6219 220.52484,410.07386 C 218.01888,407.31666 214.74022,406.75915 211.71509,407.73085 z "
           id="path5224"
           sodipodi:nodetypes="csssss" />
      </g>
      <g
         style="stroke:#000000;stroke-opacity:1"
         transform="matrix(1.1058638,1.5138529e-2,-2.0815967e-2,1.1498358,194.81237,-56.2687)"
         id="g5236">
        <path
           sodipodi:nodetypes="csssc"
           id="path5238"
           d="M 218.6716,419.19792 C 219.79847,419.38896 221.6478,419.24342 223.08065,418.06477 C 224.97062,416.5101 225.1423,411.97181 223.01284,409.22298 C 220.7086,406.24851 216.52378,405.53755 214.21076,405.92977 C 213.03907,406.12846 211.49025,407.03589 211.24638,407.82436"
           style="fill:#ffffff;fill-opacity:1;stroke:#000000;stroke-width:0.3546806;stroke-miterlimit:4;stroke-dasharray:none;stroke-opacity:1" />
        <path
           sodipodi:nodetypes="csssss"
           id="path5240"
           d="M 211.71509,407.73085 C 208.07917,408.89873 203.64011,411.84751 205.34208,416.35315 C 206.59331,419.66554 211.07735,420.85463 215.18276,420.1957 C 217.48775,419.82574 219.69087,418.91866 221.18088,417.75896 C 223.03244,416.31786 223.54802,412.51935 221.23216,409.97131 C 218.7262,407.21411 214.74022,406.75915 211.71509,407.73085 z "
           style="fill:#ffffff;fill-opacity:1;stroke:#000000;stroke-width:0.35468063;stroke-miterlimit:4;stroke-dasharray:none;stroke-opacity:1" />
      </g>
      <g
         style="stroke:#000000;stroke-opacity:1"
         id="g6230">
        <path
           sodipodi:nodetypes="cssss"
           id="path4214"
           d="M 197.6581,379.21683 C 197.55887,370.55139 202.75818,359.83651 212.00749,359.84918 C 221.46105,359.86213 224.58506,371.30905 225.28508,380.29839 C 225.81711,387.13052 220.98092,399.58164 211.67446,399.84005 C 203.14536,400.07686 197.76533,388.58067 197.6581,379.21683 z "
           style="fill:none;stroke:#000000;stroke-width:0.40000001;stroke-miterlimit:4;stroke-dasharray:none;stroke-opacity:1" />
        <path
           style="fill:none;stroke:#000000;stroke-width:0.40000001;stroke-miterlimit:4;stroke-dasharray:none;stroke-opacity:1"
           d="M 194.84913,378.90451 C 194.71067,366.01165 203.16901,355.70603 213.27802,355.72138 C 225.39955,355.74002 230.21793,368.31884 230.24207,379.32952 C 230.27114,392.76823 222.98882,402.52614 211.68602,402.42004 C 200.55655,402.31558 194.98666,391.71206 194.84913,378.90451 z "
           id="path4216"
           sodipodi:nodetypes="cssss" />
        <path
           style="fill:none;fill-opacity:1;stroke:#000000;stroke-width:0.40000001;stroke-miterlimit:4;stroke-dasharray:none;stroke-opacity:1"
           d="M 210.47527,362.64119 C 208.62775,374.03972 208.83312,385.43826 211.00544,396.83679"
           id="path5243"
           sodipodi:nodetypes="cc" />
        <path
           style="fill:none;fill-opacity:1;stroke:#000000;stroke-width:0.40000001;stroke-miterlimit:4;stroke-dasharray:none;stroke-opacity:1"
           d="M 215.24675,364.23168 C 214.08093,374.39317 214.47255,384.55465 215.77691,394.71614"
           id="path5245"
           sodipodi:nodetypes="cc" />
        <path
           style="fill:none;fill-opacity:1;stroke:#000000;stroke-width:0.40000001;stroke-miterlimit:4;stroke-dasharray:none;stroke-opacity:1"
           d="M 205.17363,366.8825 C 203.47238,375.80694 204.1298,386.05678 205.70379,393.65581"
           id="path5251"
           sodipodi:nodetypes="cc" />
      </g>
      <g
         style="stroke:#000000;stroke-opacity:1"
         id="g6239">
        <path
           style="fill:none;stroke:#000000;stroke-width:0.40000001;stroke-miterlimit:4;stroke-dasharray:none;stroke-opacity:1"
           d="M 404.31356,387.2581 C 404.20632,378.26131 409.82533,367.13762 419.82127,367.14986 C 430.79779,367.1633 434.30014,379.04081 434.17066,388.38101 C 434.05417,396.60459 429.51905,408.40163 419.46136,408.66991 C 410.24376,408.91578 404.42944,396.97999 404.31356,387.2581 z "
           id="path15299"
           sodipodi:nodetypes="cssss" />
        <path
           sodipodi:nodetypes="cssss"
           id="path15301"
           d="M 401.27784,386.93383 C 401.12821,373.54797 410.26932,362.84829 421.19436,362.86422 C 434.29437,362.88358 439.5017,375.94338 439.52778,387.37509 C 439.5592,401.32768 431.68904,411.45871 419.47384,411.34856 C 407.44598,411.2401 401.42648,400.23112 401.27784,386.93383 z "
           style="fill:none;stroke:#000000;stroke-width:0.40000001;stroke-miterlimit:4;stroke-dasharray:none;stroke-opacity:1" />
        <path
           sodipodi:nodetypes="cc"
           id="path6224"
           d="M 418.63348,370.59367 C 416.53277,382.61072 416.76628,394.62779 419.2363,406.64484"
           style="fill:none;fill-opacity:1;stroke:#000000;stroke-width:0.40000001;stroke-miterlimit:4;stroke-dasharray:none;stroke-opacity:1" />
        <path
           sodipodi:nodetypes="cc"
           id="path6226"
           d="M 424.05886,372.27046 C 422.73327,382.98335 423.17856,393.69623 424.66167,404.40912"
           style="fill:none;fill-opacity:1;stroke:#000000;stroke-width:0.40000001;stroke-miterlimit:4;stroke-dasharray:none;stroke-opacity:1" />
        <path
           sodipodi:nodetypes="cc"
           id="path6228"
           d="M 412.60528,375.06512 C 410.67089,384.47384 411.4184,395.27987 413.2081,403.29125"
           style="fill:none;fill-opacity:1;stroke:#000000;stroke-width:0.40000001;stroke-miterlimit:4;stroke-dasharray:none;stroke-opacity:1" />
      </g>
    </g>
  </g>
</svg>
